parteA/simulation/qsim/parteA.msim.vcd
$comment
	File created using the following command:
		vcd file parteA.msim.vcd -direction
$end
$date
	Tue Nov 15 20:16:27 2022
$end
$version
	ModelSim Version 10.1d
$end
$timescale
	1ps
$end
$scope module parteA_vlg_vec_tst $end
$var reg 1 ! SW1 $end
$var reg 1 " SW2 $end
$var wire 1 # LED $end
$var wire 1 $ sampler $end
$scope module i1 $end
$var wire 1 % gnd $end
$var wire 1 & vcc $end
$var wire 1 ' unknown $end
$var tri1 1 ( devclrn $end
$var tri1 1 ) devpor $end
$var tri1 1 * devoe $end
$var wire 1 + LED~output_o $end
$var wire 1 , SW2~input_o $end
$var wire 1 - SW1~input_o $end
$var wire 1 . LED~0_combout $end
$upscope $end
$upscope $end
$enddefinitions $end
#0
$dumpvars
0!
0"
x#
x$
0%
1&
x'
1(
1)
1*
x+
0,
0-
x.
$end
#3143
0.
#5718
1+
1#
#50000
1!
0$
#50769
1-
#100000
1"
0!
1$
#100769
1,
#100874
0-
#150000
1!
0$
#150769
1-
#153678
1.
#156270
0+
0#
#200000
0"
0!
1$
#200874
0-
0,
#204017
0.
#206592
1+
1#
#250000
1!
0$
#250769
1-
#300000
1"
0!
1$
#300769
1,
#300874
0-
#350000
1!
0$
#350769
1-
#353678
1.
#356270
0+
0#
#400000
0"
0!
1$
#400874
0-
0,
#404017
0.
#406592
1+
1#
#450000
1!
0$
#450769
1-
#500000
1"
0!
1$
#500769
1,
#500874
0-
#550000
1!
0$
#550769
1-
#553678
1.
#556270
0+
0#
#600000
0"
0!
1$
#600874
0-
0,
#604017
0.
#606592
1+
1#
#650000
1!
0$
#650769
1-
#700000
1"
0!
1$
#700769
1,
#700874
0-
#750000
1!
0$
#750769
1-
#753678
1.
#756270
0+
0#
#800000
0"
0!
1$
#800874
0-
0,
#804017
0.
#806592
1+
1#
#850000
1!
0$
#850769
1-
#900000
1"
0!
1$
#900769
1,
#900874
0-
#950000
1!
0$
#950769
1-
#953678
1.
#956270
0+
0#
